<svg width="60" height="60" viewBox="0 0 60 60" fill="none" xmlns="http://www.w3.org/2000/svg">
<g clip-path="url(#clip0)">
<path d="M60 28.9874C60 42.767 49.8362 54.2172 36.6118 56.2362C36.7233 55.6246 36.7546 54.9913 36.6795 54.3495C36.6795 54.3495 36.6005 53.6742 36.4971 52.7904C41.1923 51.9905 45.4314 49.8361 48.7913 46.7377C48.5896 46.57 48.3887 46.3524 48.1907 46.0636C47.2983 44.7616 48.4652 43.4696 48.4652 42.331C48.4652 41.2141 46.2135 41.306 46.1311 40.5663C45.8466 38.0045 47.7031 37.9696 48.6929 36.9798C49.6827 35.99 47.7146 33.7397 46.4433 33.8849C45.1634 34.0216 41.5608 33.2938 41.89 30.5374C42.2911 27.1803 37.6128 27.4765 36.9429 25.9095C35.9664 23.6255 37.5898 20.8239 39.7072 20.1874C42.7065 19.286 45.6611 16.8392 45.4303 14.1155C45.1688 11.0307 43.7725 8.24862 41.4728 6.59597C39.0797 5.62646 36.4992 5.02695 33.7994 4.87567C31.3899 4.97097 29.2715 5.50646 29.3681 6.6096C29.6051 9.31293 37.2924 10.0151 36.0024 12.5421C35.3299 13.8595 30.2824 15.7188 31.2251 17.6794C31.8382 18.9544 33.3471 17.8617 32.7838 20.3094C32.5246 21.4357 31.5371 23.5518 30.0183 23.6884C28.4653 23.8334 27.1721 19.7191 22.9448 19.5842C20.9464 19.5203 18.131 22.7022 20.5216 24.9597C21.9692 26.3268 24.6858 23.3167 25.4875 25.668C26.0525 27.325 25.4115 30.8058 28.0484 32.2605C29.0097 32.7908 30.4833 33.253 31.9408 33.9936C29.7775 34.4354 27.1195 35.2597 23.9808 36.4687L21.3363 35.771C22.4433 34.8494 24.2421 34.2007 23.7895 32.1869C23.1247 29.2284 17.9877 30.3442 14.4463 26.8028C13.3598 25.7166 11.0424 22.1094 11.052 17.7757C9.28666 21.1288 8.28195 24.9421 8.28195 28.9875C8.28195 30.2327 8.37695 31.4563 8.5596 32.6513C8.51793 32.6506 8.47676 32.6433 8.43519 32.6433C7.3199 32.6433 6.22607 32.8776 5.21235 33.3207C4.98843 31.9084 4.86892 30.4619 4.86892 28.9876C4.86892 13.7881 17.2349 1.42175 32.4343 1.42175C47.634 1.42156 60 13.7879 60 28.9874ZM39.3224 37.0219L32.5901 40.1166L32.6945 38.6496L37.0559 36.6808C36.4338 36.6363 35.7893 36.6193 35.1458 36.6193C32.7361 36.6193 28.6648 37.8391 24.1619 39.6265L9.71999 35.8171C8.37039 35.4611 6.93352 35.6804 5.75146 36.423L5.04137 36.8691C4.34813 37.3046 4.34078 38.3124 5.02754 38.7581L13.7088 44.3903C11.635 45.4509 9.66744 46.528 7.93293 47.5568L3.47823 45.1983C2.75058 44.8131 1.89029 44.7674 1.12607 45.0735L0.704406 45.2425C0.0755822 45.4942 -0.187849 46.242 0.144504 46.8323L2.59852 51.1923L2.5996 51.1919C1.67372 51.9885 1.14607 52.6491 1.14607 53.1063C1.14607 54.4745 2.8298 54.8165 4.31392 54.8165C6.96097 54.8165 41.9185 46.8124 41.9185 39.5611C41.9183 38.125 40.9362 37.4067 39.3224 37.0219ZM24.5834 51.1797L32.2759 48.4699C32.6147 48.3505 32.9768 48.5764 33.0185 48.9332L33.6929 54.6994C33.8615 56.1403 33.0865 57.5268 31.771 58.1384L31.0495 58.4737C30.5989 58.6831 30.0644 58.5709 29.7361 58.198L24.349 52.0784C24.0868 51.7804 24.2089 51.3117 24.5834 51.1797Z" fill="white"/>
</g>
<defs>
<clipPath id="clip0">
<rect width="60" height="60" fill="white"/>
</clipPath>
</defs>
</svg>
