<svg width="150" height="150" viewBox="0 0 150 150" fill="none" xmlns="http://www.w3.org/2000/svg">
<path d="M0 90.8203V145.605C0 148.032 1.96758 150 4.39453 150H145.605C148.032 150 150 148.032 150 145.605V90.8203H0ZM132.422 128.027C132.422 130.454 130.454 132.422 128.027 132.422H21.9727C19.5457 132.422 17.5781 130.454 17.5781 128.027V104.004C17.5781 101.577 19.5457 99.6094 21.9727 99.6094H128.027C130.454 99.6094 132.422 101.577 132.422 104.004V128.027Z" fill="#323848"/>
<path d="M26.3672 108.398H123.633V123.633H26.3672V108.398Z" fill="#323848"/>
<path d="M80.6268 40.1717C80.8193 39.0265 80.8981 36.2975 77.7275 34.9624V44.3729C79.3755 43.4289 80.3599 41.7596 80.6268 40.1717Z" fill="#323848"/>
<path d="M71.8689 19.894C70.9748 20.5796 70.482 21.6176 70.3124 22.5179C70.0783 23.7598 70.3748 24.9135 71.0676 25.4566C71.3117 25.648 71.5806 25.836 71.8689 26.0209V19.894Z" fill="#323848"/>
<path d="M75 64.4531C92.7981 64.4531 107.227 50.0247 107.227 32.2266C107.227 14.4284 92.7981 0 75 0C57.2019 0 42.7734 14.4284 42.7734 32.2266C42.7734 50.0247 57.2019 64.4531 75 64.4531ZM63.9144 44.1999C64.8003 42.8461 66.6161 42.4667 67.9699 43.3521C69.5522 44.3871 70.5442 44.8368 71.8682 45.0229V32.6496C69.9967 31.7921 68.598 30.9668 67.4505 30.0665C65.0194 28.1599 63.9094 24.8514 64.5536 21.4321C65.2556 17.7062 67.8492 14.7419 71.3218 13.6957C71.5058 13.6403 71.6877 13.5896 71.8682 13.5416V11.7188C71.8682 10.101 73.1798 8.78906 74.7979 8.78906C76.4156 8.78906 77.7275 10.101 77.7275 11.7188V13.2208C80.5717 13.7133 82.5826 15.1134 83.5561 16.2313C84.619 17.4513 84.4913 19.302 83.2714 20.3646C82.0579 21.4216 80.2207 21.3015 79.1549 20.0994C79.0884 20.0317 78.6226 19.5835 77.7275 19.2536V28.72C78.2476 28.9131 78.7673 29.1003 79.2773 29.2808C84.4272 31.1013 87.2915 35.8685 86.405 41.1434C85.7156 45.2435 82.5955 49.4016 77.7275 50.6364V52.7344C77.7275 54.3521 76.4156 55.6641 74.7979 55.6641C73.1798 55.6641 71.8682 54.3521 71.8682 52.7344V50.9174C69.5027 50.7129 67.5419 50.0739 64.7625 48.2555C63.4081 47.3695 63.0284 45.554 63.9144 44.1999Z" fill="#323848"/>
<path d="M138.055 49.88C137.457 48.0855 135.777 46.875 133.886 46.875H113.308C110.635 53.8444 106.113 59.906 100.343 64.4531H113.085C115.512 64.4531 117.48 66.4207 117.48 68.8477C117.48 71.2746 115.512 73.2422 113.085 73.2422H36.9134C34.4864 73.2422 32.5188 71.2746 32.5188 68.8477C32.5188 66.4207 34.4864 64.4531 36.9134 64.4531H49.6552C43.8857 59.906 39.3641 53.8444 36.6901 46.875H16.1126C14.2209 46.875 12.5419 48.0855 11.9437 49.88L1.22656 82.0312H148.772L138.055 49.88Z" fill="#323848"/>
</svg>
