<svg width="75" height="65" viewBox="0 0 75 65" fill="none" xmlns="http://www.w3.org/2000/svg">
<path d="M57.5773 14.0505V0.39856H43.0474L57.5773 14.0505Z" fill="white"/>
<path d="M20.7729 16.9326H54.2273L37.5001 1.21619L20.7729 16.9326Z" fill="white"/>
<path d="M56.4162 21.3271H18.584L37.5001 64.6014L56.4162 21.3271Z" fill="white"/>
<path d="M17.4224 14.0505L31.9523 0.39856H17.4224V14.0505Z" fill="white"/>
<path d="M13.028 16.9326V3.70801L0.476074 16.9326H13.028Z" fill="white"/>
<path d="M61.9722 16.9326H74.5241L61.9722 3.70801V16.9326Z" fill="white"/>
<path d="M61.2122 21.3271L45.7842 56.6215L75 21.3271H61.2122Z" fill="white"/>
<path d="M13.7878 21.3271H0L29.2159 56.6215L13.7878 21.3271Z" fill="white"/>
</svg>
